8CDB387D86FDDEC0
62167D41893491D3
3B876B3C13E2FBD3
4D34B46D1F8E692F
AA90E368C4072789
5B8BE924D4E5A6BF
F7B5CB8057D7537E
2B351A2A4CE1E9B6
6653672A0B8F5229
1E266C232DD027E2
69813AEC34F2324F
CD9065D55F0F1B2A
7B99F22F9DE7854C
AB70F5D1386CCFDD
80AA29E78A7228CB
9ED811415CD63636
D62FDDC0B3C0B7AC
0F183D2CEBC2AD4D
C5F520ED09C53AD2
D22E1E64337731C4
BBDDB4EF127BD3D6
683D18921AB66823
46A6B420F783E1B9
2E3A7E2A63D61D37
3928B89F00C53E53
EBC380D0C75703F1
